pipes, map
…
---

Or we can use the pipes

```r
VSG<-read_csv("~/Downloads/VOTER_Survey_Jan217_Release1-csv.csv")
VSG %>% 
  select( fav_sanders_2019, fav_warren_2019) %>%
  mutate(fav_sanders_binary= na_if(fav_sanders_2019, fav_sanders_2019>4)) %>%
  mutate(fav_sanders_binary = (fav_sanders_2019<=2)*1) 
```

```
## # A tibble: 9,548 x 3
##    fav_sanders_2019 fav_warren_2019 fav_sanders_binary
##               <dbl>           <dbl>              <dbl>
##  1                1               1                  1
##  2               NA              NA                 NA
##  3                2               1                  1
##  4                4               3                  0
##  5                3               4                  0
##  6                3               1                  0
##  7                3               2                  0
##  8               NA              NA                 NA
##  9               NA              NA                 NA
## 10                2               1                  1
## # … with 9,538 more rows
```
…
```
## # A tibble: 9,548 x 3
##    fav_sanders_2019 fav_warren_2019 fav_sanders_binary
##               <dbl>           <dbl>              <dbl>
##  1                1               1                  1
##  2               NA              NA                 NA
##  3                2               1                  1
##  4                4               3                  0
##  5                3               4                  0
##  6                3               1                  0
##  7                3               2                  0
##  8               NA              NA                 NA
##  9               NA              NA                 NA
## 10                2               1                  1
## # … with 9,538 more rows
```
…
