8 More useful packages | Political Data Science
…
Take all of the words she has used and reduce them down to only their first five letters. Repeat (2) and compare.

Question 2

hertweets <- filter(tweets, ScreenName == "lydakrewson")["Text"]
numWords <- hertweets %>% 
    rowwise() %>% 
    transmute(numWords= length(unlist(str_split(Text, " "))))
numWords

## Source: local data frame [3,191 x 1]
## Groups: <by row>
## 
## # A tibble: 3,191 x 1
##    numWords
##       <int>
##  1       20
##  2       25
##  3       20
##  4       20
##  5       17
##  6       21
##  7        8
##  8       11
##  9       19
## 10       13
## # ... with 3,181 more rows
…
