10 Using SQL syntax on an R dataframe | Political Data Science
…
With tidy:

tweetCounts <- tweets %>% 
    filter(!is.na(ScreenName)) %>% 
    group_by(ScreenName) %>% 
    tally()
mayors_new <- mayors %>% 
    inner_join(tweetCounts, by=c("TwitterHandle"="ScreenName")) %>% 
    group_by(MayorID) %>% 
    arrange(FullName) %>%
    arrange(desc(n)) %>% 
    select("MayorID", "FullName", "TwitterHandle", "n")
mayors_new

## # A tibble: 572 x 4
## # Groups:   MayorID [572]
##    MayorID FullName          TwitterHandle       n
##      <dbl> <chr>             <chr>           <int>
##  1     902 Derek Armstead    derek_armstead   3200
##  2    1143 Ed Pawlowski      ed_pawlowski     3200
##  3     778 Emily Larson      larsonforduluth  3200
##  4    1071 Greg Peterson     dublinohio       3200
##  5     812 Jason L. Shelton  tupmayorsoffice  3200
##  6    1141 Jim Kenney        phillymayor      3200
##  7     498 Rahm Emmanuel     chicagosmayor    3200
##  8     443 Thomas A. Masters mayormasters     3200
##  9      11 William Stimpson  mayorstimpson    3200
## 10     715 Andy Schor        andyschor        3199
## # ... with 562 more rows
