7 dplyr and tidy | Political Data Science
…
class(primaryPolls)

## [1] "spec_tbl_df" "tbl_df"      "tbl"         "data.frame"

A tibble is basically a data frame

They are both friendlier and more structured than traditional data frames

primaryPolls

## # A tibble: 16,661 x 33
##    question_id poll_id cycle state pollster_id pollster sponsor_ids sponsors
##          <dbl>   <dbl> <dbl> <chr>       <dbl> <chr>          <dbl> <chr>   
##  1      116805   63512  2020 New ~        1515 Data fo~          NA <NA>    
##  2      116805   63512  2020 New ~        1515 Data fo~          NA <NA>    
##  3      116805   63512  2020 New ~        1515 Data fo~          NA <NA>    
##  4      116805   63512  2020 New ~        1515 Data fo~          NA <NA>    
##  5      116805   63512  2020 New ~        1515 Data fo~          NA <NA>    
##  6      116805   63512  2020 New ~        1515 Data fo~          NA <NA>    
##  7      116805   63512  2020 New ~        1515 Data fo~          NA <NA>    
##  8      116805   63512  2020 New ~        1515 Data fo~          NA <NA>    
##  9      116799   63511  2020 <NA>          744 Ipsos             71 Reuters 
## 10      116799   63511  2020 <NA>          744 Ipsos             71 Reuters 
## # ... with 16,651 more rows, and 25 more variables: display_name <chr>,
## #   pollster_rating_id <dbl>, pollster_rating_name <chr>, fte_grade <chr>,
## #   sample_size <dbl>, population <chr>, population_full <chr>,
## #   methodology <chr>, office_type <chr>, start_date <date>, end_date <chr>,
## #   sponsor_candidate <lgl>, internal <lgl>, partisan <lgl>, tracking <lgl>,
## #   nationwide_batch <lgl>, created_at <chr>, notes <chr>, url <chr>,
## #   stage <chr>, party <chr>, answer <chr>, candidate_id <dbl>,
## #   candidate_name <chr>, pct <dbl>
…
Subset data by column: select

Create new variables as a function of other variables: mutate

Collapse values down (or extract statistic): summarise

We can use group_by to make changes in the scope

7.2.1 filter

filter allows you to easily subset data using conditions as we have done before using accessors

filter(primaryPolls, candidate_name == c("Amy Klobuchar"))

## # A tibble: 874 x 33
##    question_id poll_id cycle state pollster_id pollster sponsor_ids sponsors
##          <dbl>   <dbl> <dbl> <chr>       <dbl> <chr>          <dbl> <chr>   
##  1      116805   63512  2020 New ~        1515 Data fo~          NA <NA>    
##  2      116799   63511  2020 <NA>          744 Ipsos             71 Reuters 
##  3      116732   63489  2020 New ~        1102 Emerson~          43 7News   
##  4      116733   63490  2020 New ~         458 Suffolk~       68323 Boston ~
##  5      116743   63493  2020 New ~          23 America~          NA <NA>    
##  6      116798   63510  2020 New ~        1529 Elucd             NA <NA>    
##  7      116745   63494  2020 New ~        1470 Univers~         143 CNN     
##  8      116792   63508  2020 Cali~        1491 Capitol~          NA <NA>    
##  9      116763   63496  2020 <NA>          396 Quinnip~          NA <NA>    
## 10      116714   63483  2020 New ~        1102 Emerson~          43 7News   
## # ... with 864 more rows, and 25 more variables: display_name <chr>,
## #   pollster_rating_id <dbl>, pollster_rating_name <chr>, fte_grade <chr>,
## #   sample_size <dbl>, population <chr>, population_full <chr>,
## #   methodology <chr>, office_type <chr>, start_date <date>, end_date <chr>,
## #   sponsor_candidate <lgl>, internal <lgl>, partisan <lgl>, tracking <lgl>,
## #   nationwide_batch <lgl>, created_at <chr>, notes <chr>, url <chr>,
## #   stage <chr>, party <chr>, answer <chr>, candidate_id <dbl>,
## #   candidate_name <chr>, pct <dbl>

Or you can include multiple conditions

filter(primaryPolls, 
       candidate_name == c("Amy Klobuchar"), 
       state=="New Hampshire")

## # A tibble: 84 x 33
##    question_id poll_id cycle state pollster_id pollster sponsor_ids sponsors
##          <dbl>   <dbl> <dbl> <chr>       <dbl> <chr>          <dbl> <chr>   
##  1      116805   63512  2020 New ~        1515 Data fo~          NA <NA>    
##  2      116732   63489  2020 New ~        1102 Emerson~          43 7News   
##  3      116733   63490  2020 New ~         458 Suffolk~       68323 Boston ~
##  4      116743   63493  2020 New ~          23 America~          NA <NA>    
##  5      116798   63510  2020 New ~        1529 Elucd             NA <NA>    
##  6      116745   63494  2020 New ~        1470 Univers~         143 CNN     
##  7      116714   63483  2020 New ~        1102 Emerson~          43 7News   
##  8      116715   63484  2020 New ~         458 Suffolk~       68323 Boston ~
##  9      116717   63485  2020 New ~        1470 Univers~         143 CNN     
## 10      116718   63486  2020 New ~         568 YouGov           133 CBS News
## # ... with 74 more rows, and 25 more variables: display_name <chr>,
## #   pollster_rating_id <dbl>, pollster_rating_name <chr>, fte_grade <chr>,
## #   sample_size <dbl>, population <chr>, population_full <chr>,
## #   methodology <chr>, office_type <chr>, start_date <date>, end_date <chr>,
## #   sponsor_candidate <lgl>, internal <lgl>, partisan <lgl>, tracking <lgl>,
## #   nationwide_batch <lgl>, created_at <chr>, notes <chr>, url <chr>,
## #   stage <chr>, party <chr>, answer <chr>, candidate_id <dbl>,
## #   candidate_name <chr>, pct <dbl>

Everything you have already learned about boolean operators applies here.

7.2.2 arrange

arrange does the same thing, but organizes data by rows insead of subsetting by rows.

arrange(primaryPolls, state, pollster_id)

## # A tibble: 16,661 x 33
##    question_id poll_id cycle state pollster_id pollster sponsor_ids sponsors
##          <dbl>   <dbl> <dbl> <chr>       <dbl> <chr>          <dbl> <chr>   
##  1       99478   58691  2020 Alab~        1193 SurveyM~         132 NBC News
##  2       99478   58691  2020 Alab~        1193 SurveyM~         132 NBC News
##  3       99478   58691  2020 Alab~        1193 SurveyM~         132 NBC News
##  4       99478   58691  2020 Alab~        1193 SurveyM~         132 NBC News
##  5       99478   58691  2020 Alab~        1193 SurveyM~         132 NBC News
##  6       99478   58691  2020 Alab~        1193 SurveyM~         132 NBC News
##  7       99478   58691  2020 Alab~        1193 SurveyM~         132 NBC News
##  8       99478   58691  2020 Alab~        1193 SurveyM~         132 NBC News
##  9       99478   58691  2020 Alab~        1193 SurveyM~         132 NBC News
## 10       99478   58691  2020 Alab~        1193 SurveyM~         132 NBC News
## # ... with 16,651 more rows, and 25 more variables: display_name <chr>,
## #   pollster_rating_id <dbl>, pollster_rating_name <chr>, fte_grade <chr>,
## #   sample_size <dbl>, population <chr>, population_full <chr>,
## #   methodology <chr>, office_type <chr>, start_date <date>, end_date <chr>,
## #   sponsor_candidate <lgl>, internal <lgl>, partisan <lgl>, tracking <lgl>,
## #   nationwide_batch <lgl>, created_at <chr>, notes <chr>, url <chr>,
## #   stage <chr>, party <chr>, answer <chr>, candidate_id <dbl>,
## #   candidate_name <chr>, pct <dbl>

Or in descending order

arrange(primaryPolls, state, desc(pollster_id))

## # A tibble: 16,661 x 33
##    question_id poll_id cycle state pollster_id pollster sponsor_ids sponsors
##          <dbl>   <dbl> <dbl> <chr>       <dbl> <chr>          <dbl> <chr>   
##  1       93812   57768  2020 Alab~        1365 Change ~          NA <NA>    
##  2       93812   57768  2020 Alab~        1365 Change ~          NA <NA>    
##  3       93812   57768  2020 Alab~        1365 Change ~          NA <NA>    
##  4       93812   57768  2020 Alab~        1365 Change ~          NA <NA>    
##  5       93812   57768  2020 Alab~        1365 Change ~          NA <NA>    
##  6       93812   57768  2020 Alab~        1365 Change ~          NA <NA>    
##  7       93812   57768  2020 Alab~        1365 Change ~          NA <NA>    
##  8       93812   57768  2020 Alab~        1365 Change ~          NA <NA>    
##  9       93812   57768  2020 Alab~        1365 Change ~          NA <NA>    
## 10       93812   57768  2020 Alab~        1365 Change ~          NA <NA>    
## # ... with 16,651 more rows, and 25 more variables: display_name <chr>,
## #   pollster_rating_id <dbl>, pollster_rating_name <chr>, fte_grade <chr>,
## #   sample_size <dbl>, population <chr>, population_full <chr>,
## #   methodology <chr>, office_type <chr>, start_date <date>, end_date <chr>,
## #   sponsor_candidate <lgl>, internal <lgl>, partisan <lgl>, tracking <lgl>,
## #   nationwide_batch <lgl>, created_at <chr>, notes <chr>, url <chr>,
## #   stage <chr>, party <chr>, answer <chr>, candidate_id <dbl>,
## #   candidate_name <chr>, pct <dbl>

7.2.3 select

Select is just a much easier way to subset by column

select(primaryPolls, state, candidate_name, start_date)

## # A tibble: 16,661 x 3
##    state         candidate_name      start_date
##    <chr>         <chr>               <date>    
##  1 New Hampshire Bernard Sanders     2020-02-07
##  2 New Hampshire Andrew Yang         2020-02-07
##  3 New Hampshire Pete Buttigieg      2020-02-07
##  4 New Hampshire Joseph R. Biden Jr. 2020-02-07
##  5 New Hampshire Tulsi Gabbard       2020-02-07
##  6 New Hampshire Amy Klobuchar       2020-02-07
##  7 New Hampshire Elizabeth Warren    2020-02-07
##  8 New Hampshire Tom Steyer          2020-02-07
##  9 <NA>          Bernard Sanders     2020-02-06
## 10 <NA>          Joseph R. Biden Jr. 2020-02-06
## # ... with 16,651 more rows
It comes with a nice syntax for doing this without just listing

var1:var20 will select all columns between these two

-var1:var20 will select everything except that range

starts_with("cand") will select columns that start with “cand”

Similar functionality for ends_with, contains, and matches

A fun trick to move your favorite variables to the front, but keep it all:

select(primaryPolls, state, candidate_name, start_date, everything())

## # A tibble: 16,661 x 33
##    state candidate_name start_date question_id poll_id cycle pollster_id
##    <chr> <chr>          <date>           <dbl>   <dbl> <dbl>       <dbl>
##  1 New ~ Bernard Sande~ 2020-02-07      116805   63512  2020        1515
##  2 New ~ Andrew Yang    2020-02-07      116805   63512  2020        1515
##  3 New ~ Pete Buttigieg 2020-02-07      116805   63512  2020        1515
##  4 New ~ Joseph R. Bid~ 2020-02-07      116805   63512  2020        1515
##  5 New ~ Tulsi Gabbard  2020-02-07      116805   63512  2020        1515
##  6 New ~ Amy Klobuchar  2020-02-07      116805   63512  2020        1515
##  7 New ~ Elizabeth War~ 2020-02-07      116805   63512  2020        1515
##  8 New ~ Tom Steyer     2020-02-07      116805   63512  2020        1515
##  9 <NA>  Bernard Sande~ 2020-02-06      116799   63511  2020         744
## 10 <NA>  Joseph R. Bid~ 2020-02-06      116799   63511  2020         744
## # ... with 16,651 more rows, and 26 more variables: pollster <chr>,
## #   sponsor_ids <dbl>, sponsors <chr>, display_name <chr>,
## #   pollster_rating_id <dbl>, pollster_rating_name <chr>, fte_grade <chr>,
## #   sample_size <dbl>, population <chr>, population_full <chr>,
## #   methodology <chr>, office_type <chr>, end_date <chr>,
## #   sponsor_candidate <lgl>, internal <lgl>, partisan <lgl>, tracking <lgl>,
## #   nationwide_batch <lgl>, created_at <chr>, notes <chr>, url <chr>,
## #   stage <chr>, party <chr>, answer <chr>, candidate_id <dbl>, pct <dbl>

Note here that rename is the mythical easy way to rename a column, although syntax seems backwards

You have to specify the new column name on the left side of the equal sign and the old column name on the right

basicPolls<-select(primaryPolls, state, candidate_name, start_date, pct)
rename(basicPolls, candidate = candidate_name)

## # A tibble: 16,661 x 4
##    state         candidate           start_date   pct
##    <chr>         <chr>               <date>     <dbl>
##  1 New Hampshire Bernard Sanders     2020-02-07    28
##  2 New Hampshire Andrew Yang         2020-02-07     5
##  3 New Hampshire Pete Buttigieg      2020-02-07    26
##  4 New Hampshire Joseph R. Biden Jr. 2020-02-07     9
##  5 New Hampshire Tulsi Gabbard       2020-02-07     3
##  6 New Hampshire Amy Klobuchar       2020-02-07    13
##  7 New Hampshire Elizabeth Warren    2020-02-07    14
##  8 New Hampshire Tom Steyer          2020-02-07     3
##  9 <NA>          Bernard Sanders     2020-02-06    20
## 10 <NA>          Joseph R. Biden Jr. 2020-02-06    17
## # ... with 16,651 more rows

7.2.4 mutate

mutate allows us to create a new variable that is a function of the others

If you want to add the new column(s) to your existing tibble, you must use the assignment operator.

Otherwise it will just print it out and throw the results away

mutate(basicPolls, proportion=pct/100)

## # A tibble: 16,661 x 5
##    state         candidate_name      start_date   pct proportion
##    <chr>         <chr>               <date>     <dbl>      <dbl>
##  1 New Hampshire Bernard Sanders     2020-02-07    28       0.28
##  2 New Hampshire Andrew Yang         2020-02-07     5       0.05
##  3 New Hampshire Pete Buttigieg      2020-02-07    26       0.26
##  4 New Hampshire Joseph R. Biden Jr. 2020-02-07     9       0.09
##  5 New Hampshire Tulsi Gabbard       2020-02-07     3       0.03
##  6 New Hampshire Amy Klobuchar       2020-02-07    13       0.13
##  7 New Hampshire Elizabeth Warren    2020-02-07    14       0.14
##  8 New Hampshire Tom Steyer          2020-02-07     3       0.03
##  9 <NA>          Bernard Sanders     2020-02-06    20       0.2 
## 10 <NA>          Joseph R. Biden Jr. 2020-02-06    17       0.17
## # ... with 16,651 more rows

basicPolls <- mutate(basicPolls, proportion=pct/100)

transmute creates and returns a new tibble with only the mutated variable(s)

transmute(basicPolls, proportion=pct/100)

## # A tibble: 16,661 x 1
##    proportion
##         <dbl>
##  1       0.28
##  2       0.05
##  3       0.26
##  4       0.09
##  5       0.03
##  6       0.13
##  7       0.14
##  8       0.03
##  9       0.2 
## 10       0.17
## # ... with 16,651 more rows

transmute(primaryPolls, numberRespondents=round((pct/100)*sample_size))

## # A tibble: 16,661 x 1
##    numberRespondents
##                <dbl>
##  1               363
##  2                65
##  3               337
##  4               117
##  5                39
##  6               168
##  7               181
##  8                39
##  9               111
## 10                95
## # ... with 16,651 more rows

transmute(primaryPolls, 
          proportion=pct/100,
          numberRespondents=round(proportion*sample_size),
          )

## # A tibble: 16,661 x 2
##    proportion numberRespondents
##         <dbl>             <dbl>
##  1       0.28               363
##  2       0.05                65
##  3       0.26               337
##  4       0.09               117
##  5       0.03                39
##  6       0.13               168
##  7       0.14               181
##  8       0.03                39
##  9       0.2                111
## 10       0.17                95
## # ... with 16,651 more rows

Note that you can use a ton of the basic functions we have already covered like sum, mean, sqrt, etc.

A useful one is n(), which just counts the number of observations

This includes logical comparisons

mutate(basicPolls, top_tier=(pct>10)*1)

## # A tibble: 16,661 x 6
##    state         candidate_name      start_date   pct proportion top_tier
##    <chr>         <chr>               <date>     <dbl>      <dbl>    <dbl>
##  1 New Hampshire Bernard Sanders     2020-02-07    28       0.28        1
##  2 New Hampshire Andrew Yang         2020-02-07     5       0.05        0
##  3 New Hampshire Pete Buttigieg      2020-02-07    26       0.26        1
##  4 New Hampshire Joseph R. Biden Jr. 2020-02-07     9       0.09        0
##  5 New Hampshire Tulsi Gabbard       2020-02-07     3       0.03        0
##  6 New Hampshire Amy Klobuchar       2020-02-07    13       0.13        1
##  7 New Hampshire Elizabeth Warren    2020-02-07    14       0.14        1
##  8 New Hampshire Tom Steyer          2020-02-07     3       0.03        0
##  9 <NA>          Bernard Sanders     2020-02-06    20       0.2         1
## 10 <NA>          Joseph R. Biden Jr. 2020-02-06    17       0.17        1
## # ... with 16,651 more rows
…
We can easily extract summary statistics

summarise(basicPolls, average_candidate=mean(pct), count=n())

## # A tibble: 1 x 2
##   average_candidate count
##               <dbl> <int>
## 1              6.34 16661

This is more powerful when also using the group_by function

basicPolls_grouped<-group_by(basicPolls, candidate_name)
summarise(basicPolls_grouped, average_candidate=mean(pct), count=n())

## # A tibble: 76 x 3
##    candidate_name   average_candidate count
##    <chr>                        <dbl> <int>
##  1 Amy Klobuchar                2.32    874
##  2 Andrew Cuomo                 0.433    12
##  3 Andrew Yang                  2.34    831
##  4 Barack Obama                 0         2
##  5 Ben Sasse                    0.711    36
##  6 Bernard Sanders             18.3     960
##  7 Beto O'Rourke                3.76    653
##  8 Bill de Blasio               0.534   318
##  9 Bob Corker                   0.611    36
## 10 Charles D. Baker            31.5       2
## # ... with 66 more rows

basicPolls_grouped<-group_by(basicPolls, candidate_name, state)
summarise(basicPolls_grouped, average_candidate=mean(pct), count=n())

## # A tibble: 1,024 x 4
## # Groups:   candidate_name [76]
##    candidate_name state      average_candidate count
##    <chr>          <chr>                  <dbl> <int>
##  1 Amy Klobuchar  Alabama                 1        3
##  2 Amy Klobuchar  Arizona                 1.18     6
##  3 Amy Klobuchar  California              1.74    40
##  4 Amy Klobuchar  Colorado                0.1      1
##  5 Amy Klobuchar  Delaware                1        1
##  6 Amy Klobuchar  Florida                 1.98    13
##  7 Amy Klobuchar  Georgia                 1.27     4
##  8 Amy Klobuchar  Illinois                2.15     2
##  9 Amy Klobuchar  Indiana                 0        1
## 10 Amy Klobuchar  Iowa                    5.97    61
## # ... with 1,014 more rows

7.2.6 Piping

The tidyverse includes a nice syntax for combining multiple commands so we don’t have to create new objects all of the time.

The %?% syntax allows us to pass on the results of one line to another

The result from the left side of the %>% is passed as the first parameter of the next function

basicPolls %>%
  group_by(candidate_name, state) %>%
  summarise(average_candidate=mean(pct), count=n())

## # A tibble: 1,024 x 4
## # Groups:   candidate_name [76]
##    candidate_name state      average_candidate count
##    <chr>          <chr>                  <dbl> <int>
##  1 Amy Klobuchar  Alabama                 1        3
##  2 Amy Klobuchar  Arizona                 1.18     6
##  3 Amy Klobuchar  California              1.74    40
##  4 Amy Klobuchar  Colorado                0.1      1
##  5 Amy Klobuchar  Delaware                1        1
##  6 Amy Klobuchar  Florida                 1.98    13
##  7 Amy Klobuchar  Georgia                 1.27     4
##  8 Amy Klobuchar  Illinois                2.15     2
##  9 Amy Klobuchar  Indiana                 0        1
## 10 Amy Klobuchar  Iowa                    5.97    61
## # ... with 1,014 more rows
…
